{
  "configVersion": 2,
  "packages": [
    {
      "name": "complex_number",
      "rootUri": "../",
      "packageUri": "lib/",
      "languageVersion": "2.10"
    }
  ],
  "generated": "2020-10-20T03:06:53.785332Z",
  "generator": "pub",
  "generatorVersion": "2.10.2"
}
